<?xml version="1.0" encoding="utf-8"?>
<!-- Generator: Adobe Illustrator 17.0.0, SVG Export Plug-In . SVG Version: 6.00 Build 0)  -->
<!DOCTYPE svg PUBLIC "-//W3C//DTD SVG 1.1//EN" "http://www.w3.org/Graphics/SVG/1.1/DTD/svg11.dtd">
<svg version="1.1" id="Camada_1" xmlns="http://www.w3.org/2000/svg" xmlns:xlink="http://www.w3.org/1999/xlink" x="0px" y="0px"
	 width="21.207px" height="21.207px" viewBox="0 0 21.207 21.207" enable-background="new 0 0 21.207 21.207" xml:space="preserve">
<g>
	<line fill="none" stroke="#000000" stroke-miterlimit="10" x1="0.354" y1="20.854" x2="20.854" y2="0.354"/>
	<line fill="none" stroke="#000000" stroke-miterlimit="10" x1="0.354" y1="0.354" x2="20.854" y2="20.854"/>
</g>
</svg>
