<?xml version="1.0" encoding="utf-8"?>
<!-- Generator: Adobe Illustrator 18.0.0, SVG Export Plug-In . SVG Version: 6.00 Build 0)  -->
<!DOCTYPE svg PUBLIC "-//W3C//DTD SVG 1.1//EN" "http://www.w3.org/Graphics/SVG/1.1/DTD/svg11.dtd">
<svg version="1.1" id="Camada_1" xmlns="http://www.w3.org/2000/svg" xmlns:xlink="http://www.w3.org/1999/xlink" x="0px" y="0px"
	 viewBox="5.2 87.3 116 5.5" enable-background="new 5.2 87.3 116 5.5" xml:space="preserve">
<g>
	<g>
		<line fill="none" stroke="#000000" stroke-miterlimit="10" x1="5.2" y1="90" x2="58.2" y2="90"/>
		<line fill="none" stroke="#000000" stroke-miterlimit="10" x1="68.2" y1="90" x2="121.2" y2="90"/>
	</g>
	<circle fill="none" stroke="#000000" stroke-miterlimit="10" cx="63.2" cy="90" r="2.2"/>
</g>
</svg>
